{
	"version": 1,
	"changelists": [
		{
			"guid": "00000000000000000000000000000000",
			"description": "Default Uncontrolled Changelist",
			"files": [
				"E:/yumi/UnrealPractice/Unreal_Practice/MyProject/Content/BluePrint/AL_NPC.uasset",
				"E:/yumi/UnrealPractice/Unreal_Practice/MyProject/Content/BluePrint/BP_Npc.uasset",
				"E:/yumi/UnrealPractice/Unreal_Practice/MyProject/Content/Characters/Mannequins/Animations/ABP_Manny.uasset",
				"E:/yumi/UnrealPractice/Unreal_Practice/MyProject/Content/__ExternalActors__/ThirdPerson/Maps/ThirdPersonMap/7/MY/1GJ9ISL3VR8U87U3RQCPNP.uasset",
				"E:/yumi/UnrealPractice/Unreal_Practice/MyProject/Content/__ExternalActors__/ThirdPerson/Maps/ThirdPersonMap/2/JV/RI2GJA7QN9JGSA623T49D1.uasset",
				"E:/yumi/UnrealPractice/Unreal_Practice/MyProject/Content/BluePrint/BT_NPC.uasset",
				"E:/yumi/UnrealPractice/Unreal_Practice/MyProject/Content/BluePrint/BTTask_BlueprintBase_New.uasset",
				"E:/yumi/UnrealPractice/Unreal_Practice/MyProject/Content/BluePrint/BB_NPC.uasset",
				"E:/yumi/UnrealPractice/Unreal_Practice/MyProject/Content/__ExternalActors__/ThirdPerson/Maps/ThirdPersonMap/6/QD/QMD87YM4CFRYNBYQCIJCHN.uasset",
				"E:/yumi/UnrealPractice/Unreal_Practice/MyProject/Content/__ExternalActors__/ThirdPerson/Maps/ThirdPersonMap/9/U1/HDN2E1HVBHNUQ9RZPRG43H.uasset",
				"E:/yumi/UnrealPractice/Unreal_Practice/MyProject/Content/AssetsvilleTown/Maps/Demonstration.umap",
				"E:/yumi/UnrealPractice/Unreal_Practice/MyProject/Content/ThirdPerson/Blueprints/BP_ThirdPersonCharacter.uasset",
				"E:/yumi/UnrealPractice/Unreal_Practice/MyProject/Content/Input/IA_Find.uasset",
				"E:/yumi/UnrealPractice/Unreal_Practice/MyProject/Content/Input/Keyboard.uasset",
				"E:/yumi/UnrealPractice/Unreal_Practice/MyProject/Content/BluePrint/Actor.uasset",
				"E:/yumi/UnrealPractice/Unreal_Practice/MyProject/Content/Image/Eric.uasset",
				"E:/yumi/UnrealPractice/Unreal_Practice/MyProject/Content/Widget/level3Start.uasset",
				"E:/yumi/UnrealPractice/Unreal_Practice/MyProject/Content/AssetsvilleTown/Maps/Level3.umap",
				"E:/yumi/UnrealPractice/Unreal_Practice/MyProject/Content/AssetsvilleTown/Maps/Level3_BuiltData.uasset",
				"E:/yumi/UnrealPractice/Unreal_Practice/MyProject/Content/AssetsvilleTown/Maps/BP_Coffee.uasset",
				"E:/yumi/UnrealPractice/Unreal_Practice/MyProject/Content/AssetsvilleTown/Maps/BP_CAR.uasset",
				"E:/yumi/UnrealPractice/Unreal_Practice/MyProject/Content/Widget/FindPeople.uasset",
				"E:/yumi/UnrealPractice/Unreal_Practice/MyProject/Content/BluePrint/BP_Npc_Car.uasset",
				"E:/yumi/UnrealPractice/Unreal_Practice/MyProject/Content/BluePrint/AL_CAR.uasset",
				"E:/yumi/UnrealPractice/Unreal_Practice/MyProject/Content/Input/IA_Grab.uasset",
				"E:/yumi/UnrealPractice/Unreal_Practice/MyProject/Content/Widget/kitchenCabinet_21_Blueprint.uasset",
				"E:/yumi/UnrealPractice/Unreal_Practice/MyProject/Content/BluePrint/MyAIController.uasset",
				"E:/yumi/UnrealPractice/Unreal_Practice/MyProject/Content/BluePrint/MyBehaviorTree.uasset",
				"E:/yumi/UnrealPractice/Unreal_Practice/MyProject/Content/AssetsvilleTown/Maps/Mainmenu.umap",
				"E:/yumi/UnrealPractice/Unreal_Practice/MyProject/Content/AI_Car_Blueprint.uasset",
				"E:/yumi/UnrealPractice/Unreal_Practice/MyProject/Content/Widget/Main_menu.uasset",
				"E:/yumi/UnrealPractice/Unreal_Practice/MyProject/Content/Widget/FindCar.uasset",
				"E:/yumi/UnrealPractice/Unreal_Practice/MyProject/Content/Widget/FindCoffee.uasset",
				"E:/yumi/UnrealPractice/Unreal_Practice/MyProject/Content/__ExternalActors__/ThirdPerson/Maps/ThirdPersonMap/6/VE/AYEL8LQ0ROTQBEZ1NSUUAP.uasset",
				"E:/yumi/UnrealPractice/Unreal_Practice/MyProject/Content/Widget/FindCare.uasset"
			]
		}
	]
}