"E:\yumi\UnrealPractice\Unreal_Practice\MyProject\Source\MyProject\MyProjectGameMode.cpp"
/FI"E:\yumi\UnrealPractice\Unreal_Practice\MyProject\Intermediate\Build\Win64\x64\MyProjectEditor\Development\Engine\SharedPCH.Engine.Cpp20.h"
/FI"E:\yumi\UnrealPractice\Unreal_Practice\MyProject\Intermediate\Build\Win64\x64\UnrealEditor\Development\MyProject\Definitions.MyProject.h"
/Yu"E:\yumi\UnrealPractice\Unreal_Practice\MyProject\Intermediate\Build\Win64\x64\MyProjectEditor\Development\Engine\SharedPCH.Engine.Cpp20.h"
/Fp"E:\yumi\UnrealPractice\Unreal_Practice\MyProject\Intermediate\Build\Win64\x64\MyProjectEditor\Development\Engine\SharedPCH.Engine.Cpp20.h.pch"
/Fo"E:\yumi\UnrealPractice\Unreal_Practice\MyProject\Intermediate\Build\Win64\x64\UnrealEditor\Development\MyProject\MyProjectGameMode.cpp.obj"
/sourceDependencies "E:\yumi\UnrealPractice\Unreal_Practice\MyProject\Intermediate\Build\Win64\x64\UnrealEditor\Development\MyProject\MyProjectGameMode.cpp.dep.json"
@"E:\yumi\UnrealPractice\Unreal_Practice\MyProject\Intermediate\Build\Win64\x64\UnrealEditor\Development\MyProject\MyProject.Shared.rsp"
/Zc:inline
/nologo
/Oi
/FC
/c
/Gw
/Gy
/utf-8
/wd4819
/DSAL_NO_ATTRIBUTE_DECLARATIONS=1
/permissive-
/Zc:strictStrings-
/Zc:__cplusplus
/D_CRT_STDIO_LEGACY_WIDE_SPECIFIERS=1
/D_SILENCE_STDEXT_HASH_DEPRECATION_WARNINGS=1
/D_WINDLL
/D_DISABLE_EXTENDED_ALIGNED_STORAGE
/Ob2
/Ox
/Ot
/GF
/errorReport:prompt
/EHsc
/DPLATFORM_EXCEPTIONS_DISABLED=0
/Z7
/MD
/bigobj
/fp:fast
/Zo
/Zp8
/we4456
/we4458
/we4459
/we4668
/wd4244
/wd4838
/TP
/GR-
/W4
/std:c++20
/Zc:preprocessor
/wd5054