/MANIFEST:EMBED
/MANIFESTINPUT:"..\Build\Windows\Resources\Default-Win64.manifest"
/NOLOGO
/DEBUG:FULL
/errorReport:prompt
/MACHINE:x64
/SUBSYSTEM:WINDOWS
/FIXED:No
/NXCOMPAT
/STACK:12000000
/DELAY:UNLOAD
/DLL
/PDBALTPATH:%_PDB%
/OPT:NOREF
/OPT:NOICF
/INCREMENTAL:NO
/ignore:4199
/ignore:4099
/ALTERNATENAME:__imp___std_init_once_begin_initialize=__imp_InitOnceBeginInitialize
/ALTERNATENAME:__imp___std_init_once_complete=__imp_InitOnceComplete
/DELAYLOAD:"d3d12.dll"
/DELAYLOAD:"DBGHELP.DLL"
/LIBPATH:"E:\ProgramFiles\Microsoft Visual Studio\2022\Community\VC\Tools\MSVC\14.38.33130\lib\x64"
/LIBPATH:"C:\Program Files (x86)\Windows Kits\10\lib\10.0.22621.0\ucrt\x64"
/LIBPATH:"C:\Program Files (x86)\Windows Kits\10\lib\10.0.22621.0\um\x64"
/NODEFAULTLIB:"LIBCMT"
/NODEFAULTLIB:"LIBCPMT"
/NODEFAULTLIB:"LIBCMTD"
/NODEFAULTLIB:"LIBCPMTD"
/NODEFAULTLIB:"MSVCRTD"
/NODEFAULTLIB:"MSVCPRTD"
/NODEFAULTLIB:"LIBC"
/NODEFAULTLIB:"LIBCP"
/NODEFAULTLIB:"LIBCD"
/NODEFAULTLIB:"LIBCPD"
/FUNCTIONPADMIN:6
"E:\yumi\UnrealPractice\Unreal_Practice\MyProject\Intermediate\Build\Win64\x64\MyProjectEditor\Development\Engine\SharedPCH.Engine.Cpp20.h.obj"
"E:\yumi\UnrealPractice\Unreal_Practice\MyProject\Intermediate\Build\Win64\x64\UnrealEditor\Development\MyProject\AICarController.gen.cpp.obj"
"E:\yumi\UnrealPractice\Unreal_Practice\MyProject\Intermediate\Build\Win64\x64\UnrealEditor\Development\MyProject\Finder.gen.cpp.obj"
"E:\yumi\UnrealPractice\Unreal_Practice\MyProject\Intermediate\Build\Win64\x64\UnrealEditor\Development\MyProject\Grabber.gen.cpp.obj"
"E:\yumi\UnrealPractice\Unreal_Practice\MyProject\Intermediate\Build\Win64\x64\UnrealEditor\Development\MyProject\GrabberSome.gen.cpp.obj"
"E:\yumi\UnrealPractice\Unreal_Practice\MyProject\Intermediate\Build\Win64\x64\UnrealEditor\Development\MyProject\MyActor.gen.cpp.obj"
"E:\yumi\UnrealPractice\Unreal_Practice\MyProject\Intermediate\Build\Win64\x64\UnrealEditor\Development\MyProject\MyProject.init.gen.cpp.obj"
"E:\yumi\UnrealPractice\Unreal_Practice\MyProject\Intermediate\Build\Win64\x64\UnrealEditor\Development\MyProject\MyProjectCharacter.gen.cpp.obj"
"E:\yumi\UnrealPractice\Unreal_Practice\MyProject\Intermediate\Build\Win64\x64\UnrealEditor\Development\MyProject\MyProjectGameMode.gen.cpp.obj"
"E:\yumi\UnrealPractice\Unreal_Practice\MyProject\Intermediate\Build\Win64\x64\UnrealEditor\Development\MyProject\YourMovingActor.gen.cpp.obj"
"E:\yumi\UnrealPractice\Unreal_Practice\MyProject\Intermediate\Build\Win64\x64\UnrealEditor\Development\MyProject\Finder.cpp.obj"
"E:\yumi\UnrealPractice\Unreal_Practice\MyProject\Intermediate\Build\Win64\x64\UnrealEditor\Development\MyProject\Grabber.cpp.obj"
"E:\yumi\UnrealPractice\Unreal_Practice\MyProject\Intermediate\Build\Win64\x64\UnrealEditor\Development\MyProject\GrabberSome.cpp.obj"
"E:\yumi\UnrealPractice\Unreal_Practice\MyProject\Intermediate\Build\Win64\x64\UnrealEditor\Development\MyProject\MyActor.cpp.obj"
"E:\yumi\UnrealPractice\Unreal_Practice\MyProject\Intermediate\Build\Win64\x64\UnrealEditor\Development\MyProject\MyClass.cpp.obj"
"E:\yumi\UnrealPractice\Unreal_Practice\MyProject\Intermediate\Build\Win64\x64\UnrealEditor\Development\MyProject\MyProject.cpp.obj"
"E:\yumi\UnrealPractice\Unreal_Practice\MyProject\Intermediate\Build\Win64\x64\UnrealEditor\Development\MyProject\MyProjectCharacter.cpp.obj"
"E:\yumi\UnrealPractice\Unreal_Practice\MyProject\Intermediate\Build\Win64\x64\UnrealEditor\Development\MyProject\MyProjectGameMode.cpp.obj"
"E:\yumi\UnrealPractice\Unreal_Practice\MyProject\Intermediate\Build\Win64\x64\UnrealEditor\Development\MyProject\AICarController.cpp.obj"
"E:\yumi\UnrealPractice\Unreal_Practice\MyProject\Intermediate\Build\Win64\x64\UnrealEditor\Development\MyProject\YourMovingActor.cpp.obj"
"E:\yumi\UnrealPractice\Unreal_Practice\MyProject\Intermediate\Build\Win64\x64\UnrealEditor\Development\MyProject\Default.rc2.res"
"..\Intermediate\Build\Win64\x64\UnrealEditor\Development\Engine\UnrealEditor-Engine.lib"
"..\Intermediate\Build\Win64\x64\UnrealEditor\Development\Core\UnrealEditor-Core.lib"
"..\Intermediate\Build\Win64\x64\UnrealEditor\Development\CoreUObject\UnrealEditor-CoreUObject.lib"
"..\Intermediate\Build\Win64\x64\UnrealEditor\Development\InputCore\UnrealEditor-InputCore.lib"
"..\Plugins\EnhancedInput\Intermediate\Build\Win64\x64\UnrealEditor\Development\EnhancedInput\UnrealEditor-EnhancedInput.lib"
"delayimp.lib"
"wininet.lib"
"rpcrt4.lib"
"ws2_32.lib"
"dbghelp.lib"
"comctl32.lib"
"Winmm.lib"
"kernel32.lib"
"user32.lib"
"gdi32.lib"
"winspool.lib"
"comdlg32.lib"
"advapi32.lib"
"shell32.lib"
"ole32.lib"
"oleaut32.lib"
"uuid.lib"
"odbc32.lib"
"odbccp32.lib"
"netapi32.lib"
"iphlpapi.lib"
"setupapi.lib"
"synchronization.lib"
"dwmapi.lib"
"imm32.lib"
/OUT:"E:\yumi\UnrealPractice\Unreal_Practice\MyProject\Binaries\Win64\UnrealEditor-MyProject.dll"
/IMPLIB:"E:\yumi\UnrealPractice\Unreal_Practice\MyProject\Intermediate\Build\Win64\x64\UnrealEditor\Development\MyProject\UnrealEditor-MyProject.sup.lib"
/PDB:"E:\yumi\UnrealPractice\Unreal_Practice\MyProject\Binaries\Win64\UnrealEditor-MyProject.pdb"
/ignore:4078